{
  "name": "Surfaces_Redux",
  "version": "1.0.0",
  "title": "Surfaces_Redux",
  "author": "DeltaNedas",
  "description": "Reach up to the skies or dig deep below, expand your base vertically... If you're into that kind of thing.  Original by Simcra, ported to 0.14-0.16 by Erdbeerbaer. Ported to 0.17 by DeltaNedas.",
  "factorio_version": "0.17",
  "dependencies": ["base >= 0.17.51", "? Bio_Industries", "? bobelectronics", "? bobenemies", "? bobwarfare", "? bobpower", "? boblogistics", "? Squeak Through", "? Warehousing"]
}
